<mxfile host="65bd71144e">
    <diagram id="N7z-QcN54dtSpb-sIKwv" name="Page-1">
        <mxGraphModel dx="1773" dy="635" grid="1" gridSize="10" guides="1" tooltips="1" connect="1" arrows="1" fold="1" page="1" pageScale="1" pageWidth="850" pageHeight="1100" math="0" shadow="0">
            <root>
                <mxCell id="0"/>
                <mxCell id="1" parent="0"/>
                <mxCell id="2" value="" style="rounded=1;whiteSpace=wrap;html=1;" parent="1" vertex="1">
                    <mxGeometry x="170" y="170" width="160" height="270" as="geometry"/>
                </mxCell>
                <mxCell id="3" value="C1" style="rounded=1;whiteSpace=wrap;html=1;" parent="1" vertex="1">
                    <mxGeometry x="190" y="200" width="120" height="60" as="geometry"/>
                </mxCell>
                <mxCell id="4" value="C2" style="rounded=1;whiteSpace=wrap;html=1;" parent="1" vertex="1">
                    <mxGeometry x="190" y="290" width="120" height="60" as="geometry"/>
                </mxCell>
                <mxCell id="5" value="C3" style="rounded=1;whiteSpace=wrap;html=1;" parent="1" vertex="1">
                    <mxGeometry x="200" y="370" width="120" height="60" as="geometry"/>
                </mxCell>
                <mxCell id="6" value="P1" style="text;html=1;strokeColor=none;fillColor=none;align=center;verticalAlign=middle;whiteSpace=wrap;rounded=0;" parent="1" vertex="1">
                    <mxGeometry x="180" y="110" width="60" height="30" as="geometry"/>
                </mxCell>
                <mxCell id="8" value="" style="rounded=1;whiteSpace=wrap;html=1;" parent="1" vertex="1">
                    <mxGeometry x="420" y="170" width="160" height="270" as="geometry"/>
                </mxCell>
                <mxCell id="9" value="C1" style="rounded=1;whiteSpace=wrap;html=1;" parent="1" vertex="1">
                    <mxGeometry x="440" y="200" width="120" height="60" as="geometry"/>
                </mxCell>
                <mxCell id="10" value="C2" style="rounded=1;whiteSpace=wrap;html=1;" parent="1" vertex="1">
                    <mxGeometry x="440" y="290" width="120" height="60" as="geometry"/>
                </mxCell>
                <mxCell id="11" value="C3" style="rounded=1;whiteSpace=wrap;html=1;" parent="1" vertex="1">
                    <mxGeometry x="450" y="370" width="120" height="60" as="geometry"/>
                </mxCell>
                <mxCell id="12" value="P100" style="text;html=1;strokeColor=none;fillColor=none;align=center;verticalAlign=middle;whiteSpace=wrap;rounded=0;" parent="1" vertex="1">
                    <mxGeometry x="430" y="110" width="60" height="30" as="geometry"/>
                </mxCell>
                <mxCell id="14" style="edgeStyle=none;html=1;" parent="1" source="13" target="3" edge="1">
                    <mxGeometry relative="1" as="geometry"/>
                </mxCell>
                <mxCell id="15" style="edgeStyle=none;html=1;" parent="1" source="13" target="4" edge="1">
                    <mxGeometry relative="1" as="geometry"/>
                </mxCell>
                <mxCell id="16" style="edgeStyle=none;html=1;" parent="1" source="13" target="5" edge="1">
                    <mxGeometry relative="1" as="geometry"/>
                </mxCell>
                <mxCell id="17" style="edgeStyle=none;html=1;" parent="1" source="13" target="9" edge="1">
                    <mxGeometry relative="1" as="geometry"/>
                </mxCell>
                <mxCell id="18" style="edgeStyle=none;html=1;" parent="1" source="13" target="10" edge="1">
                    <mxGeometry relative="1" as="geometry"/>
                </mxCell>
                <mxCell id="19" style="edgeStyle=none;html=1;" parent="1" source="13" target="11" edge="1">
                    <mxGeometry relative="1" as="geometry"/>
                </mxCell>
                <mxCell id="31" style="edgeStyle=none;html=1;" edge="1" parent="1" source="13" target="30">
                    <mxGeometry relative="1" as="geometry"/>
                </mxCell>
                <mxCell id="13" value="Reusable Jobs" style="shape=note;whiteSpace=wrap;html=1;backgroundOutline=1;darkOpacity=0.05;" parent="1" vertex="1">
                    <mxGeometry x="310" y="490" width="80" height="100" as="geometry"/>
                </mxCell>
                <mxCell id="21" style="edgeStyle=none;html=1;" parent="1" source="20" target="13" edge="1">
                    <mxGeometry relative="1" as="geometry"/>
                </mxCell>
                <mxCell id="20" value="DevOps Engineer" style="shape=umlActor;verticalLabelPosition=bottom;verticalAlign=top;html=1;outlineConnect=0;" parent="1" vertex="1">
                    <mxGeometry x="550" y="510" width="30" height="60" as="geometry"/>
                </mxCell>
                <mxCell id="23" style="edgeStyle=none;html=1;entryX=0.138;entryY=0.004;entryDx=0;entryDy=0;entryPerimeter=0;" parent="1" source="22" target="2" edge="1">
                    <mxGeometry relative="1" as="geometry"/>
                </mxCell>
                <mxCell id="22" value="parent pipeline" style="shape=card;whiteSpace=wrap;html=1;" parent="1" vertex="1">
                    <mxGeometry x="40" y="50" width="80" height="100" as="geometry"/>
                </mxCell>
                <mxCell id="27" style="edgeStyle=none;html=1;" parent="1" source="24" target="3" edge="1">
                    <mxGeometry relative="1" as="geometry"/>
                </mxCell>
                <mxCell id="24" value="child-C1" style="shape=card;whiteSpace=wrap;html=1;" parent="1" vertex="1">
                    <mxGeometry x="30" y="160" width="80" height="100" as="geometry"/>
                </mxCell>
                <mxCell id="28" style="edgeStyle=none;html=1;" parent="1" source="25" target="4" edge="1">
                    <mxGeometry relative="1" as="geometry"/>
                </mxCell>
                <mxCell id="25" value="child-C2" style="shape=card;whiteSpace=wrap;html=1;" parent="1" vertex="1">
                    <mxGeometry x="20" y="290" width="80" height="100" as="geometry"/>
                </mxCell>
                <mxCell id="29" style="edgeStyle=none;html=1;" parent="1" source="26" edge="1">
                    <mxGeometry relative="1" as="geometry">
                        <mxPoint x="210" y="390" as="targetPoint"/>
                    </mxGeometry>
                </mxCell>
                <mxCell id="34" style="edgeStyle=none;html=1;" edge="1" parent="1" source="26" target="33">
                    <mxGeometry relative="1" as="geometry"/>
                </mxCell>
                <mxCell id="26" value="child-C3" style="shape=card;whiteSpace=wrap;html=1;" parent="1" vertex="1">
                    <mxGeometry x="20" y="420" width="80" height="100" as="geometry"/>
                </mxCell>
                <mxCell id="32" style="edgeStyle=none;html=1;" edge="1" parent="1" source="30" target="26">
                    <mxGeometry relative="1" as="geometry"/>
                </mxCell>
                <mxCell id="30" value="&lt;pre lang=&quot;yaml&quot; class=&quot;code highlight&quot;&gt;&lt;span class=&quot;line&quot; data-testid=&quot;content&quot; lang=&quot;yaml&quot; id=&quot;LC1&quot;&gt;&lt;span class=&quot;hljs-attr&quot;&gt;include:&lt;/span&gt;&lt;span class=&quot;&quot;&gt;&lt;/span&gt;&lt;/span&gt;&#10;&lt;span class=&quot;line&quot; data-testid=&quot;content&quot; lang=&quot;yaml&quot; id=&quot;LC2&quot;&gt;&lt;span class=&quot;&quot;&gt;  &lt;/span&gt;&lt;span class=&quot;hljs-bullet&quot;&gt;-&lt;/span&gt;&lt;span class=&quot;&quot;&gt; &lt;/span&gt;&lt;span class=&quot;hljs-attr&quot;&gt;project:&lt;/span&gt;&lt;span class=&quot;&quot;&gt; &lt;/span&gt;&lt;span class=&quot;hljs-string&quot;&gt;'akash-lab/gitlab-reusable-jobs'&lt;/span&gt;&lt;span class=&quot;&quot;&gt;&lt;/span&gt;&lt;/span&gt;&#10;&lt;span class=&quot;line&quot; data-testid=&quot;content&quot; lang=&quot;yaml&quot; id=&quot;LC3&quot;&gt;&lt;span class=&quot;&quot;&gt;    &lt;/span&gt;&lt;span class=&quot;hljs-attr&quot;&gt;ref:&lt;/span&gt;&lt;span class=&quot;&quot;&gt; &lt;/span&gt;&lt;span class=&quot;hljs-string&quot;&gt;master&lt;/span&gt;&lt;span class=&quot;&quot;&gt;&lt;/span&gt;&lt;/span&gt;&#10;&lt;span class=&quot;line&quot; data-testid=&quot;content&quot; lang=&quot;yaml&quot; id=&quot;LC4&quot;&gt;&lt;span class=&quot;&quot;&gt;    &lt;/span&gt;&lt;span class=&quot;hljs-attr&quot;&gt;file:&lt;/span&gt;&lt;span class=&quot;&quot;&gt; &lt;/span&gt;&lt;/span&gt;&#10;&lt;span class=&quot;line&quot; data-testid=&quot;content&quot; lang=&quot;yaml&quot; id=&quot;LC5&quot;&gt;&lt;span class=&quot;&quot;&gt;      &lt;/span&gt;&lt;span class=&quot;hljs-bullet&quot;&gt;-&lt;/span&gt;&lt;span class=&quot;&quot;&gt; &lt;/span&gt;&lt;span class=&quot;hljs-string&quot;&gt;'Templates/buildJobs.yml'&lt;/span&gt;&lt;span class=&quot;&quot;&gt;&lt;/span&gt;&lt;/span&gt;&#10;&lt;span class=&quot;line&quot; data-testid=&quot;content&quot; lang=&quot;yaml&quot; id=&quot;LC6&quot;&gt;&lt;span class=&quot;&quot;&gt;      &lt;/span&gt;&lt;span class=&quot;hljs-bullet&quot;&gt;-&lt;/span&gt;&lt;span class=&quot;&quot;&gt; &lt;/span&gt;&lt;span class=&quot;hljs-string&quot;&gt;'Templates/securityJobs.yml&lt;/span&gt;&lt;/span&gt;&#10;&lt;/pre&gt;" style="text;whiteSpace=wrap;html=1;" vertex="1" parent="1">
                    <mxGeometry x="-150" y="610" width="360" height="130" as="geometry"/>
                </mxCell>
                <mxCell id="33" value="&lt;pre lang=&quot;yaml&quot; class=&quot;code highlight&quot;&gt;&lt;span class=&quot;line&quot; data-testid=&quot;content&quot; lang=&quot;yaml&quot; id=&quot;LC37&quot;&gt;&lt;span class=&quot;hljs-attr&quot;&gt;unit-test:&lt;/span&gt;&lt;span class=&quot;&quot;&gt;&lt;/span&gt;&lt;/span&gt;&lt;br&gt;&lt;span class=&quot;line&quot; data-testid=&quot;content&quot; lang=&quot;yaml&quot; id=&quot;LC38&quot;&gt;&lt;span class=&quot;&quot;&gt;  &lt;/span&gt;&lt;span class=&quot;hljs-attr&quot;&gt;stage:&lt;/span&gt;&lt;span class=&quot;&quot;&gt; &lt;/span&gt;&lt;span class=&quot;hljs-string&quot;&gt;test&lt;/span&gt;&lt;span class=&quot;&quot;&gt;&lt;/span&gt;&lt;/span&gt;&lt;br&gt;&lt;u&gt;&lt;i&gt;&lt;span class=&quot;line&quot; data-testid=&quot;content&quot; lang=&quot;yaml&quot; id=&quot;LC39&quot;&gt;&lt;span class=&quot;&quot;&gt;  &lt;/span&gt;&lt;b&gt;&lt;span class=&quot;hljs-attr&quot;&gt;extends:&lt;/span&gt;&lt;span class=&quot;&quot;&gt; &lt;/span&gt;&lt;span class=&quot;hljs-string&quot;&gt;.unit-test&lt;/span&gt;&lt;/b&gt;&lt;span class=&quot;&quot;&gt;&lt;/span&gt;&lt;/span&gt;&lt;br&gt;&lt;/i&gt;&lt;/u&gt;&lt;span class=&quot;line&quot; data-testid=&quot;content&quot; lang=&quot;yaml&quot; id=&quot;LC40&quot;&gt;&lt;span class=&quot;&quot;&gt;  &lt;/span&gt;&lt;span class=&quot;hljs-attr&quot;&gt;variables:&lt;/span&gt;&lt;span class=&quot;&quot;&gt;&lt;/span&gt;&lt;/span&gt;&lt;br&gt;&lt;span class=&quot;line&quot; data-testid=&quot;content&quot; lang=&quot;yaml&quot; id=&quot;LC41&quot;&gt;&lt;span class=&quot;&quot;&gt;    &lt;/span&gt;&lt;span class=&quot;hljs-attr&quot;&gt;POM_FILE_PATH:&lt;/span&gt;&lt;span class=&quot;&quot;&gt; &lt;/span&gt;&lt;span class=&quot;hljs-string&quot;&gt;$POM_FILE_API&lt;/span&gt;&lt;/span&gt;&lt;br&gt;&lt;/pre&gt;" style="text;whiteSpace=wrap;html=1;" vertex="1" parent="1">
                    <mxGeometry x="-320" y="460" width="260" height="120" as="geometry"/>
                </mxCell>
                <mxCell id="35" value="Cluster" style="rounded=1;whiteSpace=wrap;html=1;" vertex="1" parent="1">
                    <mxGeometry x="-540" y="90" width="120" height="60" as="geometry"/>
                </mxCell>
                <mxCell id="38" style="edgeStyle=none;html=1;" edge="1" parent="1" source="36" target="37">
                    <mxGeometry relative="1" as="geometry">
                        <mxPoint x="-550" y="270" as="targetPoint"/>
                    </mxGeometry>
                </mxCell>
                <mxCell id="36" value="Dev&lt;br&gt;" style="shape=umlActor;verticalLabelPosition=bottom;verticalAlign=top;html=1;outlineConnect=0;" vertex="1" parent="1">
                    <mxGeometry x="-680" y="310" width="30" height="60" as="geometry"/>
                </mxCell>
                <mxCell id="39" style="edgeStyle=none;html=1;" edge="1" parent="1" source="37" target="35">
                    <mxGeometry relative="1" as="geometry"/>
                </mxCell>
                <mxCell id="37" value="Machine-Kubectl" style="shape=process;whiteSpace=wrap;html=1;backgroundOutline=1;" vertex="1" parent="1">
                    <mxGeometry x="-540" y="240" width="120" height="60" as="geometry"/>
                </mxCell>
                <mxCell id="41" style="edgeStyle=none;html=1;" edge="1" parent="1" source="40" target="37">
                    <mxGeometry relative="1" as="geometry"/>
                </mxCell>
                <mxCell id="40" value=".kube/Config" style="shape=card;whiteSpace=wrap;html=1;" vertex="1" parent="1">
                    <mxGeometry x="-540" y="380" width="80" height="100" as="geometry"/>
                </mxCell>
                <mxCell id="42" value="" style="curved=1;endArrow=classic;html=1;exitX=1;exitY=0.5;exitDx=0;exitDy=0;" edge="1" parent="1" source="35" target="40">
                    <mxGeometry width="50" height="50" relative="1" as="geometry">
                        <mxPoint x="-350" y="340" as="sourcePoint"/>
                        <mxPoint x="-300" y="290" as="targetPoint"/>
                        <Array as="points">
                            <mxPoint x="-300" y="340"/>
                            <mxPoint x="-340" y="380"/>
                        </Array>
                    </mxGeometry>
                </mxCell>
                <mxCell id="43" value="Config info of the cluster&lt;br&gt;Auth and Auth Certs" style="edgeLabel;html=1;align=center;verticalAlign=middle;resizable=0;points=[];" vertex="1" connectable="0" parent="42">
                    <mxGeometry x="-0.2345" y="-1" relative="1" as="geometry">
                        <mxPoint x="31" y="54" as="offset"/>
                    </mxGeometry>
                </mxCell>
            </root>
        </mxGraphModel>
    </diagram>
</mxfile>